{
  "project_info": {
    "project_number": "480546445194",
    "firebase_url": "https://twoswap-f19fe.firebaseio.com",
    "project_id": "twoswap-f19fe",
    "storage_bucket": "twoswap-f19fe.appspot.com"
  },
  "client": [
    {
      "client_info": {
        "mobilesdk_app_id": "1:480546445194:android:767361716ef3e0cd",
        "android_client_info": {
          "package_name": "com.twoswap.com"
        }
      },
      "oauth_client": [
        {
          "client_id": "480546445194-7abkigc74guqflf3fv0sdf518nr0duso.apps.googleusercontent.com",
          "client_type": 1,
          "android_info": {
            "package_name": "com.twoswap.com",
            "certificate_hash": "92dfe1802a455de4fb11c0ef97b2c0e02b2086d9"
          }
        },
        {
          "client_id": "480546445194-5ii1lv51fsvs53edkjcoaftpifo02uj6.apps.googleusercontent.com",
          "client_type": 3
        }
      ],
      "api_key": [
        {
          "current_key": "AIzaSyAp3bgSd2OuFBf_GTzASC9FgIh2-8lopT4"
        }
      ],
      "services": {
        "analytics_service": {
          "status": 1
        },
        "appinvite_service": {
          "status": 2,
          "other_platform_oauth_client": [
            {
              "client_id": "480546445194-5ii1lv51fsvs53edkjcoaftpifo02uj6.apps.googleusercontent.com",
              "client_type": 3
            }
          ]
        },
        "ads_service": {
          "status": 2
        }
      }
    }
  ],
  "configuration_version": "1"
}